{
    "name": "GameMeanMachine.Unity.WindRose.BackPack.Editor",
    "references": [
        "GameMeanMachine.Unity.WindRose.BackPack.Runtime",
        "AlephVault.Unity.Support.Runtime",
        "AlephVault.Unity.MenuActions.Editor",
        "GameMeanMachine.Unity.BackPack.Runtime",
        "AlephVault.Unity.Layout.Runtime",
        "GameMeanMachine.Unity.WindRose.Runtime"
    ],
    "optionalUnityReferences": [],
    "includePlatforms": [
        "Editor"
    ],
    "excludePlatforms": [],
    "allowUnsafeCode": false,
    "overrideReferences": false,
    "precompiledReferences": [],
    "autoReferenced": true,
    "defineConstraints": []
}